PathResolver                                      WARNING Locating dev file dev/PileupReweighting/share/DSID410xxx/pileup_mc16e_dsid410470_FS.root. Do not let this propagate to a release
ToolSvc.WTagger                                   WARNING duplicated property name 'Tau21WTAName', see https://its.cern.ch/jira/browse/GAUDI-1023
ToolSvc.WTagger                                   WARNING duplicated property name 'Tau32WTAName', see https://its.cern.ch/jira/browse/GAUDI-1023
ToolSvc.WTagger                                   WARNING duplicated property name 'Tau42WTAName', see https://its.cern.ch/jira/browse/GAUDI-1023
ToolSvc.WTagger                                   WARNING duplicated property name 'C2Name', see https://its.cern.ch/jira/browse/GAUDI-1023
ToolSvc.WTagger                                   WARNING duplicated property name 'D2Name', see https://its.cern.ch/jira/browse/GAUDI-1023
ToolSvc.WTagger                                   WARNING duplicated property name 'e3Name', see https://its.cern.ch/jira/browse/GAUDI-1023
ToolSvc.WTagger                                   WARNING duplicated property name 'L2Name', see https://its.cern.ch/jira/browse/GAUDI-1023
ToolSvc.WTagger                                   WARNING duplicated property name 'L3Name', see https://its.cern.ch/jira/browse/GAUDI-1023
ToolSvc.WTagger                                   WARNING duplicated property name 'Ntrk500Name', see https://its.cern.ch/jira/browse/GAUDI-1023
ToolSvc.ZTagger                                   WARNING duplicated property name 'Tau21WTAName', see https://its.cern.ch/jira/browse/GAUDI-1023
ToolSvc.ZTagger                                   WARNING duplicated property name 'Tau32WTAName', see https://its.cern.ch/jira/browse/GAUDI-1023
ToolSvc.ZTagger                                   WARNING duplicated property name 'Tau42WTAName', see https://its.cern.ch/jira/browse/GAUDI-1023
ToolSvc.ZTagger                                   WARNING duplicated property name 'C2Name', see https://its.cern.ch/jira/browse/GAUDI-1023
ToolSvc.ZTagger                                   WARNING duplicated property name 'D2Name', see https://its.cern.ch/jira/browse/GAUDI-1023
ToolSvc.ZTagger                                   WARNING duplicated property name 'e3Name', see https://its.cern.ch/jira/browse/GAUDI-1023
ToolSvc.ZTagger                                   WARNING duplicated property name 'L2Name', see https://its.cern.ch/jira/browse/GAUDI-1023
ToolSvc.ZTagger                                   WARNING duplicated property name 'L3Name', see https://its.cern.ch/jira/browse/GAUDI-1023
ToolSvc.ZTagger                                   WARNING duplicated property name 'Ntrk500Name', see https://its.cern.ch/jira/browse/GAUDI-1023
ToolSvc.TopTagger                                 WARNING duplicated property name 'Tau21WTAName', see https://its.cern.ch/jira/browse/GAUDI-1023
ToolSvc.TopTagger                                 WARNING duplicated property name 'Tau32WTAName', see https://its.cern.ch/jira/browse/GAUDI-1023
ToolSvc.TopTagger                                 WARNING duplicated property name 'Tau42WTAName', see https://its.cern.ch/jira/browse/GAUDI-1023
ToolSvc.TopTagger                                 WARNING duplicated property name 'C2Name', see https://its.cern.ch/jira/browse/GAUDI-1023
ToolSvc.TopTagger                                 WARNING duplicated property name 'D2Name', see https://its.cern.ch/jira/browse/GAUDI-1023
ToolSvc.TopTagger                                 WARNING duplicated property name 'e3Name', see https://its.cern.ch/jira/browse/GAUDI-1023
ToolSvc.TopTagger                                 WARNING duplicated property name 'L2Name', see https://its.cern.ch/jira/browse/GAUDI-1023
ToolSvc.TopTagger                                 WARNING duplicated property name 'L3Name', see https://its.cern.ch/jira/browse/GAUDI-1023
ToolSvc.TopTagger                                 WARNING duplicated property name 'Ntrk500Name', see https://its.cern.ch/jira/browse/GAUDI-1023
ToolSvc.JVTEfficiencyTool                         WARNING Supplied SF file JetJvtEfficiency/Moriond2018/JvtSFFile_EMPFlowJets.root doesn't seem to contain SFs for NNJvt, falling back to dummy SFs ...
     'NNParamFile':'NNJVT.Network.graph.Offline.Nonprompt_All_MaxWeight.json'



 Reading JVT likelihood histogram from:


     'NNCutFile':'NNJVT.Cuts.FixedEffPt.Offline.Nonprompt_All_MaxW.json'



SUSYToolsAlg.SUSYTools                            WARNING *** THE ELECTRON TRIGGER SF ARE CURRENTY NOT SUPPORTED ***
SUSYToolsAlg.SUSYTools                            WARNING *** THE ELECTRON CHARGE FLIP SF ARE CURRENTY NOT SUPPORTED ***
SUSYToolsAlg.SUSYTools                            WARNING No Photon trigger SF available for FixedCutTight, using TightCaloOnly instead... Use at your own risk
ToolSvc.TauEffTool_Medium                         WARNING 2022-prerec tag are pre-recommendations and still under development.
ToolSvc.TauTrigEffTool_Medium_HLT_tau125_medium...WARNING 2022-prerec tag are pre-recommendations and still under development.
ToolSvc.TauTrigEffTool_Medium_HLT_tau160L1TAU10...WARNING 2022-prerec tag are pre-recommendations and still under development.
ToolSvc.TauTrigEffTool_Medium_HLT_tau160L1TAU10...WARNING 2022-prerec tag are pre-recommendations and still under development.
ToolSvc.TauTrigEffTool_Medium_HLT_tau160L1TAU10...WARNING 2022-prerec tag are pre-recommendations and still under development.
ToolSvc.TauTrigEffTool_Medium_HLT_tau160_medium...WARNING 2022-prerec tag are pre-recommendations and still under development.
ToolSvc.TauTrigEffTool_Medium_HLT_tau25_medium1...WARNING 2022-prerec tag are pre-recommendations and still under development.
ToolSvc.TauTrigEffTool_Medium_HLT_tau25_medium1...WARNING 2022-prerec tag are pre-recommendations and still under development.
ToolSvc.TauTrigEffTool_Medium_HLT_tau25_medium1...WARNING 2022-prerec tag are pre-recommendations and still under development.
ToolSvc.TauTrigEffTool_Medium_HLT_tau35L1TAU12I...WARNING 2022-prerec tag are pre-recommendations and still under development.
ToolSvc.TauTrigEffTool_Medium_HLT_tau35L1TAU12I...WARNING 2022-prerec tag are pre-recommendations and still under development.
ToolSvc.TauTrigEffTool_Medium_HLT_tau35_medium1...WARNING 2022-prerec tag are pre-recommendations and still under development.
ToolSvc.TauTrigEffTool_Medium_HLT_tau35_medium1...WARNING 2022-prerec tag are pre-recommendations and still under development.
ToolSvc.TauTrigEffTool_Medium_HLT_tau35_medium1...WARNING 2022-prerec tag are pre-recommendations and still under development.
ToolSvc.TauTrigEffTool_Medium_HLT_tau50L1TAU12_...WARNING 2022-prerec tag are pre-recommendations and still under development.
ToolSvc.TauTrigEffTool_Medium_HLT_tau60_medium1...WARNING 2022-prerec tag are pre-recommendations and still under development.
ToolSvc.TauTrigEffTool_Medium_HLT_tau60_medium1...WARNING 2022-prerec tag are pre-recommendations and still under development.
ToolSvc.TauTrigEffTool_Medium_HLT_tau60_medium1...WARNING 2022-prerec tag are pre-recommendations and still under development.
ToolSvc.TauTrigEffTool_Medium_HLT_tau80L1TAU60_...WARNING 2022-prerec tag are pre-recommendations and still under development.
ToolSvc.TauTrigEffTool_Medium_HLT_tau80L1TAU60_...WARNING 2022-prerec tag are pre-recommendations and still under development.
ToolSvc.TauTrigEffTool_Medium_HLT_tau80L1TAU60_...WARNING 2022-prerec tag are pre-recommendations and still under development.
=== CalibrationDataInterfaceROOT::CalibrationDataInterfaceROOT ===
 taggerName           : DL1dv01
 Systematic strategy : SFGlobalEigen

 CDI file build number: Custom

======= end of CalibrationDataInterfaceROOT instantiation ========
CalibrationDataInterfaceROOT->retrieveCalibrationIndex :  container name is 410470_Eff
CalibrationDataInterface: retrieved container DL1dv01/AntiKt4EMPFlowJets/FixedCutBEff_85/Light/410470_Eff (with comment: 'efficiencies from sample PowhegPythia8' and hadronisation setting 'Pythia8EvtGen')
CalibrationDataInterface: retrieved container DL1dv01/AntiKt4EMPFlowJets/FixedCutBEff_85/Light/default_SF (with comment: 'negative_tag_Zjet+extrap[Run2MCcalib]' and hadronisation setting 'Pythia8EvtGen')
CalibrationDataInterfaceROOT->retrieveCalibrationIndex : container DL1dv01/AntiKt4EMPFlowJets/FixedCutBEff_85/Light/default_SF already cached! 
CalibrationDataInterfaceROOT->retrieveCalibrationIndex :  container name is 410470_Eff
CalibrationDataInterface: retrieved container DL1dv01/AntiKt4EMPFlowJets/FixedCutBEff_85/C/410470_Eff (with comment: 'efficiencies from sample PowhegPythia8' and hadronisation setting 'Pythia8EvtGen')
CalibrationDataInterface: retrieved container DL1dv01/AntiKt4EMPFlowJets/FixedCutBEff_85/C/default_SF (with comment: 'ttbarC+extrap[Run2MCcalib_ttC]' and hadronisation setting 'Pythia8EvtGen')
CalibrationDataInterfaceROOT->retrieveCalibrationIndex : container DL1dv01/AntiKt4EMPFlowJets/FixedCutBEff_85/C/default_SF already cached! 
CalibrationDataInterfaceROOT->retrieveCalibrationIndex :  container name is 410470_Eff
CalibrationDataInterface: retrieved container DL1dv01/AntiKt4EMPFlowJets/FixedCutBEff_85/B/410470_Eff (with comment: 'efficiencies from sample PowhegPythia8' and hadronisation setting 'Pythia8EvtGen')
CalibrationDataInterface: retrieved container DL1dv01/AntiKt4EMPFlowJets/FixedCutBEff_85/B/default_SF (with comment: 'ttbar_PDF+extrap[Run2MCcalib]' and hadronisation setting 'Pythia8EvtGen')
CalibrationDataInterfaceROOT->retrieveCalibrationIndex : container DL1dv01/AntiKt4EMPFlowJets/FixedCutBEff_85/B/default_SF already cached! 
CalibrationDataInterfaceROOT->retrieveCalibrationIndex :  container name is 410470_Eff
CalibrationDataInterface: retrieved container DL1dv01/AntiKt4EMPFlowJets/FixedCutBEff_85/T/410470_Eff (with comment: 'efficiencies from sample PowhegPythia8' and hadronisation setting 'Pythia8EvtGen')
CalibrationDataInterface: retrieved container DL1dv01/AntiKt4EMPFlowJets/FixedCutBEff_85/T/default_SF (with comment: 'ttbarC+addSys[newsys]+extrap[Run2MCcalib_ttC]' and hadronisation setting 'Pythia8EvtGen')
CalibrationDataInterfaceROOT->retrieveCalibrationIndex : container DL1dv01/AntiKt4EMPFlowJets/FixedCutBEff_85/T/default_SF already cached! 
     'NNParamFile':'NNJVT.Network.graph.Offline.Nonprompt_All_MaxWeight.json'



 Reading JVT likelihood histogram from:


     'NNCutFile':'NNJVT.Cuts.FixedEffPt.Offline.Nonprompt_All_MaxW.json'



ToolSvc.metSignificance_AntiKt4EMPFlow            WARNING Setup the muon calibration tool with calib mode 1. Please consider to configure the tool via the 'MuonCalibTool' property.
ToolSvc.TauEffTool_Medium                         WARNING TauEfficiency callibrations from 2022-prerec are not recommended for Run2 MC. Will only print this warning once.
ToolSvc.TauTrigEffTool_Medium_HLT_tau125_medium...WARNING TauEfficiency callibrations from 2022-prerec are not recommended for Run2 MC. Will only print this warning once.
ToolSvc.TauTrigEffTool_Medium_HLT_tau160L1TAU10...WARNING TauEfficiency callibrations from 2022-prerec are not recommended for Run2 MC. Will only print this warning once.
ToolSvc.TauTrigEffTool_Medium_HLT_tau160L1TAU10...WARNING TauEfficiency callibrations from 2022-prerec are not recommended for Run2 MC. Will only print this warning once.
ToolSvc.TauTrigEffTool_Medium_HLT_tau160L1TAU10...WARNING TauEfficiency callibrations from 2022-prerec are not recommended for Run2 MC. Will only print this warning once.
ToolSvc.TauTrigEffTool_Medium_HLT_tau160_medium...WARNING TauEfficiency callibrations from 2022-prerec are not recommended for Run2 MC. Will only print this warning once.
ToolSvc.TauTrigEffTool_Medium_HLT_tau25_medium1...WARNING TauEfficiency callibrations from 2022-prerec are not recommended for Run2 MC. Will only print this warning once.
ToolSvc.TauTrigEffTool_Medium_HLT_tau25_medium1...WARNING TauEfficiency callibrations from 2022-prerec are not recommended for Run2 MC. Will only print this warning once.
ToolSvc.TauTrigEffTool_Medium_HLT_tau25_medium1...WARNING TauEfficiency callibrations from 2022-prerec are not recommended for Run2 MC. Will only print this warning once.
ToolSvc.TauTrigEffTool_Medium_HLT_tau35L1TAU12I...WARNING TauEfficiency callibrations from 2022-prerec are not recommended for Run2 MC. Will only print this warning once.
ToolSvc.TauTrigEffTool_Medium_HLT_tau35L1TAU12I...WARNING TauEfficiency callibrations from 2022-prerec are not recommended for Run2 MC. Will only print this warning once.
ToolSvc.TauTrigEffTool_Medium_HLT_tau35_medium1...WARNING TauEfficiency callibrations from 2022-prerec are not recommended for Run2 MC. Will only print this warning once.
ToolSvc.TauTrigEffTool_Medium_HLT_tau35_medium1...WARNING TauEfficiency callibrations from 2022-prerec are not recommended for Run2 MC. Will only print this warning once.
ToolSvc.TauTrigEffTool_Medium_HLT_tau35_medium1...WARNING TauEfficiency callibrations from 2022-prerec are not recommended for Run2 MC. Will only print this warning once.
ToolSvc.TauTrigEffTool_Medium_HLT_tau50L1TAU12_...WARNING TauEfficiency callibrations from 2022-prerec are not recommended for Run2 MC. Will only print this warning once.
ToolSvc.TauTrigEffTool_Medium_HLT_tau60_medium1...WARNING TauEfficiency callibrations from 2022-prerec are not recommended for Run2 MC. Will only print this warning once.
ToolSvc.TauTrigEffTool_Medium_HLT_tau60_medium1...WARNING TauEfficiency callibrations from 2022-prerec are not recommended for Run2 MC. Will only print this warning once.
ToolSvc.TauTrigEffTool_Medium_HLT_tau60_medium1...WARNING TauEfficiency callibrations from 2022-prerec are not recommended for Run2 MC. Will only print this warning once.
ToolSvc.TauTrigEffTool_Medium_HLT_tau80L1TAU60_...WARNING TauEfficiency callibrations from 2022-prerec are not recommended for Run2 MC. Will only print this warning once.
ToolSvc.TauTrigEffTool_Medium_HLT_tau80L1TAU60_...WARNING TauEfficiency callibrations from 2022-prerec are not recommended for Run2 MC. Will only print this warning once.
ToolSvc.TauTrigEffTool_Medium_HLT_tau80L1TAU60_...WARNING TauEfficiency callibrations from 2022-prerec are not recommended for Run2 MC. Will only print this warning once.
ToolSvc.TopTagger                                 WARNING One (or more) tagger input variable has an out-of-range value, setting score to -666
		CalibrationDataInterfaceROOT object out-of-bounds summary:
			DL1dv01/AntiKt4EMPFlowJets/FixedCutBEff_85/Light/default_SF general: 0, extrapolated: 18
